{
	"info": {
		"_postman_id": "070529d9-0de5-487b-9c5d-b392015178a3",
		"name": "Challenge",
		"schema": "https://schema.getpostman.com/json/collection/v2.1.0/collection.json"
	},
	"item": [
		{
			"name": "alumno",
			"request": {
				"method": "POST",
				"header": [
					{
						"key": "Content-Type",
						"name": "Content-Type",
						"value": "application/json",
						"type": "text"
					}
				],
				"body": {
					"mode": "raw",
					"raw": "{\r\n    \"nombre\": \"Pipo\",\r\n    \"apellido\": \"Magginer\",\r\n    \"libreta\" : \"12345678\",\r\n    \"fechaNacimiento\" : \"2011-11-12\"\r\n}",
					"options": {
						"raw": {
							"language": "json"
						}
					}
				},
				"url": {
					"raw": "http://localhost:8080/api/alumnos",
					"protocol": "http",
					"host": [
						"localhost"
					],
					"port": "8080",
					"path": [
						"api",
						"alumnos"
					]
				}
			},
			"response": []
		},
		{
			"name": "Curso",
			"request": {
				"method": "POST",
				"header": [
					{
						"key": "Content-Type",
						"name": "Content-Type",
						"value": "application/json",
						"type": "text"
					}
				],
				"body": {
					"mode": "raw",
					"raw": "{\r\n    \"nombre\" : \"programacion\" ,\r\n    \"fechaInicio\" : \"1990-09-10\",\r\n    \"fechaFin\" : \"1990-09-09\" ,\r\n    \"horasSemanales\" : \"1\"\r\n}",
					"options": {
						"raw": {
							"language": "json"
						}
					}
				},
				"url": {
					"raw": "http://localhost:8080/api/cursos",
					"protocol": "http",
					"host": [
						"localhost"
					],
					"port": "8080",
					"path": [
						"api",
						"cursos"
					]
				}
			},
			"response": []
		},
		{
			"name": "inscripcion",
			"request": {
				"method": "POST",
				"header": [
					{
						"key": "Content-Type",
						"name": "Content-Type",
						"value": "application/json",
						"type": "text"
					}
				],
				"body": {
					"mode": "raw",
					"raw": "{\r\n    \"alumnoId\": \"5\",\r\n    \"cursoId\" : \"1\"\r\n}",
					"options": {
						"raw": {
							"language": "json"
						}
					}
				},
				"url": {
					"raw": "http://localhost:8080/api/inscripciones",
					"protocol": "http",
					"host": [
						"localhost"
					],
					"port": "8080",
					"path": [
						"api",
						"inscripciones"
					]
				}
			},
			"response": []
		},
		{
			"name": "alumno mas joven de un curso",
			"request": {
				"method": "GET",
				"header": [],
				"url": {
					"raw": "http://localhost:8080/api/cursos/1",
					"protocol": "http",
					"host": [
						"localhost"
					],
					"port": "8080",
					"path": [
						"api",
						"cursos",
						"1"
					]
				}
			},
			"response": []
		},
		{
			"name": "Reporte",
			"request": {
				"method": "GET",
				"header": [],
				"url": {
					"raw": "http://localhost:8080/api/reportes?date=1992-09-09",
					"protocol": "http",
					"host": [
						"localhost"
					],
					"port": "8080",
					"path": [
						"api",
						"reportes"
					],
					"query": [
						{
							"key": "date",
							"value": "1992-09-09"
						}
					]
				}
			},
			"response": []
		}
	],
	"protocolProfileBehavior": {}
}